{
    "antifeatures": {
        "Ads": "Táto aplikácia obsahuje reklamy",
        "DisabledAlgorithm": "Táto aplikácia má slabý bezpečnostný podpis",
        "KnownVuln": "Tato aplikácia má známu zraniteľnosť v zabezpečení",
        "NoSourceSince": "Zdrojový kód už nie je dostupný, aktualizácie už nie sú možné",
        "NonFreeAdd": "Táto aplikácia propaguje neslobodné doplnky",
        "NonFreeAssets": "Táto aplikácia obsahuje proprietárne časti",
        "NonFreeDep": "Táto aplikácia závisí na iných neslobodných aplikáciách",
        "NonFreeNet": "Táto aplikácia propaguje neslobodné sieťové služby",
        "Tracking": "Táto aplikácia zaznamenáva a hlási vaše aktivity",
        "UpstreamNonFree": "Originálny zdrojový kód nie je úplne slobodný"
    },
    "app_categories": {
        "Connectivity": "Pripojiteľnosť",
        "Development": "Vývoj",
        "Games": "Hry",
        "Graphics": "Grafika",
        "Internet": "Internet",
        "Money": "Financie",
        "Multimedia": "Multimédiá",
        "Navigation": "Navigácia",
        "Phone & SMS": "Telefón a SMS",
        "Reading": "Čítanie",
        "Science & Education": "Veda a výuka",
        "Security": "Bezpečnosť",
        "Sports & Health": "Šport a Zdravie",
        "System": "Systém",
        "Theming": "Témy",
        "Time": "Čas",
        "Writing": "Písanie",
        "show_all_packages": "Zobraziť všetkých %d balíkov"
    },
    "index": {
        "download_fdroid": "Stiahnuť F-Droid",
        "gpg_signature": "PGP Podpis"
    },
    "sidebars": {
        "lang": {
            "change": "Zmeniť"
        }
    }
}
